<?xml version="1.0" encoding="iso-8859-1"?>
<svg xmlns="http://www.w3.org/2000/svg" xmlns:xlink="http://www.w3.org/1999/xlink" version="1.1" id="Capa_1" x="0px" y="0px" width="512px" height="512px" viewBox="0 0 847.372 847.372" style="enable-background:new 0 0 847.372 847.372;" xml:space="preserve">
<g>
	<path d="M406.269,10.052l-232.65,405.741c-48.889,85.779-52.665,194.85,0,286.697c79.169,138.07,255.277,185.82,393.348,106.65   c138.071-79.169,185.821-255.276,106.651-393.348L440.968,10.052C433.283-3.351,413.953-3.351,406.269,10.052z" fill="#FFFFFF"/>
</g>
<g>
</g>
<g>
</g>
<g>
</g>
<g>
</g>
<g>
</g>
<g>
</g>
<g>
</g>
<g>
</g>
<g>
</g>
<g>
</g>
<g>
</g>
<g>
</g>
<g>
</g>
<g>
</g>
<g>
</g>
</svg>
